…
``` r
trans_ent %>% #df
  select(station_name, line) %>% #selecting only station_name and line variables
  distinct #identifying only observations with distinct values for this combination of variables
```

    ## # A tibble: 465 × 2
    ##    station_name             line    
    ##    <chr>                    <chr>   
    ##  1 25th St                  4 Avenue
    ##  2 36th St                  4 Avenue
    ##  3 45th St                  4 Avenue
    ##  4 53rd St                  4 Avenue
    ##  5 59th St                  4 Avenue
    ##  6 77th St                  4 Avenue
    ##  7 86th St                  4 Avenue
    ##  8 95th St                  4 Avenue
    ##  9 9th St                   4 Avenue
    ## 10 Atlantic Av-Barclays Ctr 4 Avenue
    ## # … with 455 more rows

There are 465 distinct stations. This can be found using the distinct
function by conditioning on station_name AND line (meaning a station
will be considered distinct if the combination of station_name and line
are different from all other stations).

``` r
trans_ent %>%  #df
  filter(ada == TRUE) %>% #filtering only data where ADA compliance is true
  select(station_name, line) %>% #selecting only station_name and line variables
  distinct #identifying only observations with distinct values for this combination of variables
```

    ## # A tibble: 84 × 2
    ##    station_name                   line           
    ##    <chr>                          <chr>          
    ##  1 Atlantic Av-Barclays Ctr       4 Avenue       
    ##  2 DeKalb Av                      4 Avenue       
    ##  3 Pacific St                     4 Avenue       
    ##  4 Grand Central                  42nd St Shuttle
    ##  5 34th St                        6 Avenue       
    ##  6 47-50th Sts Rockefeller Center 6 Avenue       
    ##  7 Church Av                      6 Avenue       
    ##  8 21st St                        63rd Street    
    ##  9 Lexington Av                   63rd Street    
    ## 10 Roosevelt Island               63rd Street    
    ## # … with 74 more rows
…
``` r
trans_ent %>%  #df
  pivot_longer(
    route1:route11,
    names_to = "route_number",
    values_to = "route_name") %>% #convert data to longer format with route variables
  filter(route_name == "A") %>% #filtering only data where the route name is A
  select(station_name, line) %>% #selecting only these two variables
  distinct #identifying only distinct stations based on station_name and line
```

    ## # A tibble: 60 × 2
    ##    station_name                  line           
    ##    <chr>                         <chr>          
    ##  1 Times Square                  42nd St Shuttle
    ##  2 125th St                      8 Avenue       
    ##  3 145th St                      8 Avenue       
    ##  4 14th St                       8 Avenue       
    ##  5 168th St - Washington Heights 8 Avenue       
    ##  6 175th St                      8 Avenue       
    ##  7 181st St                      8 Avenue       
    ##  8 190th St                      8 Avenue       
    ##  9 34th St                       8 Avenue       
    ## 10 42nd St                       8 Avenue       
    ## # … with 50 more rows
…
